{
    "tables": {
        "todos": {
            "tableName": "todos",
            "schema": {
                "id": {
                    "allowNull": false,
                    "primaryKey": true,
                    "autoIncrement": true,
                    "field": "id",
                    "seqType": "Sequelize.INTEGER"
                },
                "message": {
                    "allowNull": false,
                    "validate": {
                        "notEmpty": true,
                        "len": [
                            5,
                            500
                        ]
                    },
                    "field": "message",
                    "seqType": "Sequelize.STRING"
                }
            },
            "indexes": []
        }
    },
    "revision": 1
}